…
I chose to filter observations by project value to look at only
observations with high project value (greater than or equal to the 99th
percentile value). This is relevant to my overall question, as it allows
me to only see the most valuable permits given each year. Additionally,
I selected a few variables of interest to further focus my output.

``` r
building_permits %>%
  group_by(year) %>%
  filter(quantile(project_value, probs = 0.99, na.rm= TRUE) <= project_value) %>% #filter observations to only those greater than or equal to the 99th percentile 
  arrange(year, project_value) %>% #arrange data by year and project value in ascending order
  select("year", "project_value", "type_of_work", "applicant", "property_use")
```

    ## # A tibble: 210 × 5
    ## # Groups:   year [4]
    ##     year project_value type_of_work          applicant              property_use
    ##    <dbl>         <dbl> <chr>                 <chr>                  <chr>       
    ##  1  2017       6000000 New Building          Bill May DBA: Protect… Manufacturi…
    ##  2  2017       6000000 Addition / Alteration Natasha Saksman        Institution…
    ##  3  2017       6000000 Addition / Alteration Kirsten Reite Archite… Institution…
    ##  4  2017       6200000 New Building          Richard Lau, P.ENG., … Dwelling Us…
    ##  5  2017       6300000 Addition / Alteration FRANCL ARCHITECTURE I… Institution…
    ##  6  2017       6470000 New Building          Susana Chui, P.Eng C.… Manufacturi…
    ##  7  2017       6482207 New Building          Susana Chui, P.Eng C.… Dwelling Us…
    ##  8  2017       6500000 Addition / Alteration Brian Fraser DBA: Cel… Office Uses 
    ##  9  2017       7088550 Addition / Alteration Gloria Gumulja         Dwelling Us…
    ## 10  2017       7200000 Addition / Alteration TYLER FRIESEN          <NA>        
    ## # ℹ 200 more rows
…
