…
## Summarizing: Compute the number of observations for at least one of your categorical variables.

I will count the number of applications for each applicant per year.
This will help answer my question by showing the number of applications
per applicant per year.

``` r
building_permits %>%
  group_by(year) %>%
  count(applicant) %>% #count number of applications per applicant
  arrange(year, desc(n)) #arrange tibble by year and by number of applications descending
```

    ## # A tibble: 8,377 × 3
    ## # Groups:   year [4]
    ##     year applicant                                              n
    ##    <dbl> <chr>                                              <int>
    ##  1  2017 Vincent Wan DBA: D.V. Design Ltd.                    115
    ##  2  2017 Michael Lu DBA: DWG Design Work Group Ltd.            56
    ##  3  2017 Mike Chu DBA: Westpoint Design & Development Ltd.     56
    ##  4  2017 Mo Maani DBA: Devise Design                           48
    ##  5  2017 Don Piner DBA: Intarsia Design Ltd.                   44
    ##  6  2017 TIMOTHY TSE DBA: Cadlab Design Inc.                   40
    ##  7  2017 Stephanie Ho DBA: Perfectly Yours Design and Manag    39
    ##  8  2017 Amardeep Dhillon DBA: Space Smart Home Design         38
    ##  9  2017 Qi Li DBA: LQ Design Group Ltd                        38
    ## 10  2017 Danny Lung DBA: Lung Designs Group Ltd.               37
    ## # ℹ 8,367 more rows
…
I will calculate the proportion and counts of each type of work per year
group. This will help me see how the proportions for each type of work
change over time.

``` r
building_permits %>%
  group_by(year, type_of_work) %>%
  summarise(n = n()) %>%
  mutate(proportion = n/sum(n)) #calculate proportion each type of work represents of the total types of work stated for each year
```

    ## `summarise()` has grouped output by 'year'. You can override using the
    ## `.groups` argument.

    ## # A tibble: 24 × 4
    ## # Groups:   year [4]
    ##     year type_of_work                             n proportion
    ##    <dbl> <chr>                                <int>      <dbl>
    ##  1  2017 Addition / Alteration                 3133    0.465  
    ##  2  2017 Demolition / Deconstruction            877    0.130  
    ##  3  2017 New Building                          1527    0.227  
    ##  4  2017 Outdoor Uses (No Buildings Proposed)    11    0.00163
    ##  5  2017 Salvage and Abatement                 1113    0.165  
    ##  6  2017 Temporary Building / Structure          73    0.0108 
    ##  7  2018 Addition / Alteration                 3321    0.491  
    ##  8  2018 Demolition / Deconstruction            836    0.124  
    ##  9  2018 New Building                          1674    0.248  
    ## 10  2018 Outdoor Uses (No Buildings Proposed)     9    0.00133
    ## # ℹ 14 more rows
…
Second, I want to create a new categorical variable named
Value_of_Project that groups the project_value variable into four groups
by quartile. The first group is named “very low”, the second is “low”,
the third is “moderate”, and the fourth is “high”.

``` r
building_permits %>%
  mutate(Value_of_Project = case_when(project_value < 10739 ~ "very low",
                                      10739 < project_value & project_value < 48000 ~ "low",
                                      48000 < project_value & project_value < 217791.2 ~ "moderate",
                                      TRUE ~ "high")) %>% #create new categorical variable with 4 groups
  relocate(Value_of_Project)
```

    ## # A tibble: 20,680 × 15
    ##    Value_of_Project permit_number issue_date project_value type_of_work  address
    ##    <chr>            <chr>         <date>             <dbl> <chr>         <chr>  
    ##  1 very low         BP-2016-02248 2017-02-01             0 Salvage and … 4378 W…
    ##  2 very low         BU468090      2017-02-01             0 New Building  1111 R…
    ##  3 low              DB-2016-04450 2017-02-01         35000 Addition / A… 3732 W…
    ##  4 low              DB-2017-00131 2017-02-01         15000 Addition / A… 88 W P…
    ##  5 moderate         DB452250      2017-02-01        181178 New Building  492 E …
    ##  6 very low         BP-2016-01458 2017-02-02             0 Salvage and … 3332 W…
    ##  7 low              BP-2016-02022 2017-02-02         15000 Demolition /… 2873 W…
    ##  8 very low         BP-2016-02424 2017-02-02             0 Salvage and … 3579 E…
    ##  9 high             BP-2016-02588 2017-02-02      65000000 New Building  620 CA…
    ## 10 low              BP-2016-03697 2017-02-02         25000 Addition / A… 1868 W…
    ## # ℹ 20,670 more rows
    ## # ℹ 9 more variables: project_description <chr>, building_contractor <chr>,
    ## #   building_contractor_address <chr>, applicant <chr>,
    ## #   applicant_address <chr>, property_use <chr>, specific_use_category <chr>,
    ## #   year <dbl>, bi_id <dbl>
…
